<?xml version="1.0" encoding="UTF-8" standalone="no"?>
<svg width="190px" height="275px" viewBox="0 0 190 275" version="1.1" xmlns="http://www.w3.org/2000/svg" xmlns:xlink="http://www.w3.org/1999/xlink">
    <!-- Generator: Sketch 42 (36781) - http://www.bohemiancoding.com/sketch -->
    <title>dame</title>
    <desc>Created with Sketch.</desc>
    <defs></defs>
    <g id="Page-1" stroke="none" stroke-width="1" fill="none" fill-rule="evenodd">
        <g id="dame">
            <g>
                <polygon id="Fill-1" fill="#CF451F" points="150.8626 39.145 190.0006 0.007 111.7176 0"></polygon>
                <polygon id="Fill-2" fill="#382E2C" points="38.5173 33.5921 62.1313 67.2901 71.8983 60.4531 71.8963 175.8251 21.6733 226.0481 41.5183 226.0471 0.0003 233.3671 7.3453 275.0001 41.6203 226.0471 103.3463 226.0471 103.3463 266.9181 144.2383 266.9181 103.3713 226.0471 103.3643 144.3781 129.6603 118.0771 158.5543 89.1771 158.5543 31.3751 129.6443 60.2631 129.6443 118.0611 71.9843 60.3911 95.4873 43.9351 71.8733 10.2361"></polygon>
            </g>
        </g>
    </g>
</svg>